2 1
0.0 0.0 0.0 0.0 0.0 0.0 0.0 0.0 0.0 
0.0 0.0 0.0 0.0 0.0 0.0 0.0 0.0 0.0 
0.0 0.0 0.0 0.0 0.0 0.0 0.0 0.0 0.0 
14.0 35.0 0.0 0.0 0.0 19.0 36.0 74.0 96.0 87.0 88.0 75.0 75.0 79.0 72.0 45.0 42.0 42.0 39.0 38.0 45.0 43.0 45.0 47.0 44.0 43.0 47.0 46.0 48.0 49.0 49.0 53.0 56.0 52.0 64.0 47.0 0.0 0.0 0.0 0.0 0.0 0.0 0.0 0.0 0.0 
0.0 0.0 0.0 0.0 0.0 0.0 0.0 0.0 0.0 
22.0 50.0 55.0 64.0 99.0 118.0 91.0 76.0 72.0 54.0 56.0 49.0 52.0 52.0 53.0 51.0 52.0 55.0 54.0 55.0 48.0 54.0 54.0 53.0 53.0 57.0 55.0 50.0 51.0 54.0 55.0 52.0 59.0 60.0 52.0 50.0 37.0 0.0 0.0 0.0 0.0 0.0 0.0 0.0 0.0 0.0 
